[day-20]_traffic_light_controller/traffic_light_controller_tb.vcd
$date
	Mon Apr 13 23:45:41 2026
$end
$version
	Icarus Verilog
$end
$timescale
	1s
$end
$scope module traffic_light_controller_tb $end
$var wire 3 ! NS_light [2:0] $end
$var wire 3 " EW_light [2:0] $end
$var reg 1 # clk $end
$var reg 1 $ reset $end
$scope module uut $end
$var wire 1 # clk $end
$var wire 1 $ reset $end
$var parameter 3 % GREEN $end
$var parameter 3 & RED $end
$var parameter 2 ' S0 $end
$var parameter 2 ( S1 $end
$var parameter 2 ) S2 $end
$var parameter 2 * S3 $end
$var parameter 3 + YELLOW $end
$var reg 3 , EW_light [2:0] $end
$var reg 3 - NS_light [2:0] $end
$var reg 4 . counter [3:0] $end
$var reg 2 / next_state [1:0] $end
$var reg 2 0 state [1:0] $end
$upscope $end
$upscope $end
$enddefinitions $end
$comment Show the parameter values. $end
$dumpall
b10 +
b11 *
b10 )
b1 (
b0 '
b100 &
b1 %
$end
#0
$dumpvars
b0 0
b1 /
b0 .
b1 -
b100 ,
1$
0#
b100 "
b1 !
$end
#5
1#
#10
0#
0$
#15
b1 .
1#
#20
0#
#25
b10 .
1#
#30
0#
#35
b11 .
1#
#40
0#
#45
b100 .
1#
#50
0#
#55
b101 .
1#
#60
0#
#65
b110 .
1#
#70
0#
#75
b111 .
1#
#80
0#
#85
b1000 .
1#
#90
0#
#95
b1001 .
1#
#100
0#
#105
b1010 .
1#
#110
0#
#115
b1011 .
1#
#120
0#
#125
b1100 .
1#
#130
0#
#135
b1101 .
1#
#140
0#
#145
b1110 .
1#
#150
0#
#155
b1111 .
1#
#160
0#
#165
b10 !
b10 -
b10 /
b1 0
b0 .
1#
#170
0#
#175
b1 .
1#
#180
0#
#185
b10 .
1#
#190
0#
#195
b11 .
1#
#200
0#
#205
b100 .
1#
#210
0#
#215
b101 .
1#
