[day-04]_multiplexer/multiplexer_tb.vcd
$date
	Fri Apr 10 11:50:34 2026
$end
$version
	Icarus Verilog
$end
$timescale
	1s
$end
$scope module multiplexer_tb $end
$var wire 1 ! muxout $end
$var reg 8 " a [7:0] $end
$var reg 3 # sel [2:0] $end
$scope module uut $end
$var wire 8 $ a [7:0] $end
$var wire 3 % sel [2:0] $end
$var reg 1 ! muxout $end
$upscope $end
$upscope $end
$enddefinitions $end
$comment Show the parameter values. $end
$dumpall
$end
#0
$dumpvars
b0 %
b0 $
b0 #
b0 "
0!
$end
#10
1!
b1 "
b1 $
#20
b1 #
b1 %
b10 "
b10 $
#30
b10 #
b10 %
b100 "
b100 $
#40
b11 #
b11 %
b1000 "
b1000 $
#50
b100 #
b100 %
b10000 "
b10000 $
#60
b101 #
b101 %
b100000 "
b100000 $
#70
b110 #
b110 %
b1000000 "
b1000000 $
#80
b111 #
b111 %
b10000000 "
b10000000 $
