[day-17]_Types_of_remaining_counters/johnson_counter_tb.vcd
$date
	Mon Apr 13 23:32:05 2026
$end
$version
	Icarus Verilog
$end
$timescale
	1s
$end
$scope module johnson_counter_tb $end
$var wire 4 ! q [3:0] $end
$var reg 1 " clk $end
$var reg 1 # rst $end
$scope module uut $end
$var wire 1 " clk $end
$var wire 4 $ q [3:0] $end
$var wire 1 # rst $end
$var reg 4 % q_reg [3:0] $end
$upscope $end
$upscope $end
$enddefinitions $end
$comment Show the parameter values. $end
$dumpall
$end
#0
$dumpvars
b0 %
b0 $
1#
0"
b0 !
$end
#5
1"
#10
0"
0#
#15
b1000 !
b1000 $
b1000 %
1"
#20
0"
#25
b1100 !
b1100 $
b1100 %
1"
#30
0"
#35
b1110 !
b1110 $
b1110 %
1"
#40
0"
#45
b1111 !
b1111 $
b1111 %
1"
#50
0"
#55
b111 !
b111 $
b111 %
1"
#60
b0 !
b0 $
b0 %
0"
1#
#65
1"
#70
0"
0#
#75
b1000 !
b1000 $
b1000 %
1"
#80
0"
#85
b1100 !
b1100 $
b1100 %
1"
#90
0"
#95
b1110 !
b1110 $
b1110 %
1"
