[day-15]_T_flip_flop/t_ff_tb.vcd
$date
	Mon Apr 13 22:49:16 2026
$end
$version
	Icarus Verilog
$end
$timescale
	1ps
$end
$scope module t_ff_tb $end
$var wire 1 ! q $end
$var reg 1 " clk $end
$var reg 1 # rst $end
$var reg 1 $ t $end
$scope module uut $end
$var wire 1 " clk $end
$var wire 1 # rst $end
$var wire 1 $ t $end
$var reg 1 ! q $end
$upscope $end
$upscope $end
$enddefinitions $end
$comment Show the parameter values. $end
$dumpall
$end
#0
$dumpvars
0$
1#
0"
0!
$end
#5000
1"
#10000
0"
0#
#15000
1"
#20000
0"
#25000
1"
#30000
0"
1$
#35000
1!
1"
#40000
0"
0$
#45000
1"
#50000
0"
1$
#55000
0!
1"
#60000
0"
1#
#65000
1"
#70000
0"
0#
#75000
1!
1"
#80000
0"
#85000
0!
1"
#90000
0"
#95000
1!
1"
