[day-09]_encoder_8_3/encoder_8_3_tb.vcd
$date
	Mon Apr 13 21:54:48 2026
$end
$version
	Icarus Verilog
$end
$timescale
	1s
$end
$scope module encoder_8_3_tb $end
$var wire 3 ! y [2:0] $end
$var reg 8 " A [7:0] $end
$scope module uut $end
$var wire 8 # A [7:0] $end
$var reg 3 $ y [2:0] $end
$upscope $end
$upscope $end
$enddefinitions $end
$comment Show the parameter values. $end
$dumpall
$end
#0
$dumpvars
bx $
b0 #
b0 "
bx !
$end
#10
b0 !
b0 $
b1 "
b1 #
#20
b1 !
b1 $
b10 "
b10 #
#30
b10 !
b10 $
b100 "
b100 #
#40
b11 !
b11 $
b1000 "
b1000 #
#50
b100 !
b100 $
b10000 "
b10000 #
#60
b101 !
b101 $
b100000 "
b100000 #
#70
b110 !
b110 $
b1000000 "
b1000000 #
#80
b111 !
b111 $
b10000000 "
b10000000 #
