[day-03]_full_adder_&_full_subtractor/full_subtractor_tb.vcd
$date
	Fri Apr 10 10:30:12 2026
$end
$version
	Icarus Verilog
$end
$timescale
	1s
$end
$scope module full_subtractor_tb $end
$var wire 1 ! di $end
$var wire 1 " bo $end
$var reg 1 # a $end
$var reg 1 $ b $end
$var reg 1 % c $end
$scope module uut $end
$var wire 1 # a $end
$var wire 1 $ b $end
$var wire 1 " bo $end
$var wire 1 % c $end
$var wire 1 ! di $end
$upscope $end
$upscope $end
$enddefinitions $end
$comment Show the parameter values. $end
$dumpall
$end
#0
$dumpvars
0%
0$
0#
0"
0!
$end
#100
1"
1!
1%
#200
0%
1$
#300
0!
1%
#400
0"
1!
0%
0$
1#
#500
0!
1%
#600
0%
1$
#700
1"
1!
1%
