[day-19]_priorityEncoder_fsmSequenceDetector/sequence_detector_tb.vcd
$date
	Mon Apr 13 23:44:18 2026
$end
$version
	Icarus Verilog
$end
$timescale
	1s
$end
$scope module sequence_detector_tb $end
$var wire 1 ! out $end
$var reg 1 " clk $end
$var reg 1 # in $end
$var reg 1 $ reset $end
$scope module uut $end
$var wire 1 " clk $end
$var wire 1 # in $end
$var wire 1 $ reset $end
$var parameter 3 % S0 $end
$var parameter 3 & S1 $end
$var parameter 3 ' S2 $end
$var parameter 3 ( S3 $end
$var parameter 3 ) S4 $end
$var reg 3 * next_state [2:0] $end
$var reg 1 ! out $end
$var reg 3 + state [2:0] $end
$upscope $end
$upscope $end
$enddefinitions $end
$comment Show the parameter values. $end
$dumpall
b100 )
b11 (
b10 '
b1 &
b0 %
$end
#0
$dumpvars
b0 +
b0 *
1$
0#
0"
0!
$end
#5
1"
0$
#10
b1 *
0"
1#
#15
b1 +
1"
#20
b10 *
0"
0#
#25
b0 *
b10 +
1"
#30
b11 *
0"
1#
#35
b100 *
b11 +
1"
#40
0"
#45
1!
b1 *
b100 +
1"
#50
b10 *
0"
0#
#55
0!
b0 *
b10 +
1"
#60
b11 *
0"
1#
#65
b100 *
b11 +
1"
#70
b10 *
0"
0#
#75
b0 *
b10 +
1"
#80
b11 *
0"
1#
#85
b100 *
b11 +
1"
#90
0"
#95
1!
b1 *
b100 +
1"
