[day-14]_SR_flip_fliop/sr_ff_tb.vcd
$date
	Mon Apr 13 22:42:55 2026
$end
$version
	Icarus Verilog
$end
$timescale
	1s
$end
$scope module sr_ff_tb $end
$var wire 1 ! Qbar $end
$var wire 1 " Q $end
$var reg 1 # R $end
$var reg 1 $ S $end
$var reg 1 % clk $end
$scope module uut $end
$var wire 1 ! Qbar $end
$var wire 1 # R $end
$var wire 1 $ S $end
$var wire 1 % clk $end
$var reg 1 " Q $end
$upscope $end
$upscope $end
$enddefinitions $end
$comment Show the parameter values. $end
$dumpall
$end
#0
$dumpvars
0%
0$
0#
x"
x!
$end
#5
x"
1%
#10
0%
#15
x"
1%
#20
0%
#25
x"
1%
#30
0%
#35
x"
1%
#40
0%
#45
x"
1%
#50
0%
#55
x"
1%
#60
0%
#65
x"
1%
#70
0%
#75
x"
1%
#80
0%
#85
x"
1%
#90
0%
#95
x"
1%
#100
0%
1#
#105
1!
0"
1%
#110
0%
#115
1%
#120
0%
#125
1%
#130
0%
#135
1%
#140
0%
#145
1%
#150
0%
#155
1%
#160
0%
#165
1%
#170
0%
#175
1%
#180
0%
#185
1%
#190
0%
#195
1%
#200
0%
0#
1$
#205
0!
1"
1%
#210
0%
#215
1"
1%
#220
0%
#225
1"
1%
#230
0%
#235
1"
1%
#240
0%
#245
1"
1%
#250
0%
#255
1"
1%
#260
0%
#265
1"
1%
#270
0%
#275
1"
1%
#280
0%
#285
1"
1%
#290
0%
#295
1"
1%
#300
0%
1#
#305
x!
x"
1%
#310
0%
#315
x"
1%
#320
0%
#325
x"
1%
#330
0%
#335
x"
1%
#340
0%
#345
x"
1%
#350
0%
#355
x"
1%
#360
0%
#365
x"
1%
#370
0%
#375
x"
1%
#380
0%
#385
x"
1%
#390
0%
#395
x"
1%
