[day-13]_JK_flip_flop/jk_ff_tb.vcd
$date
	Mon Apr 13 22:40:08 2026
$end
$version
	Icarus Verilog
$end
$timescale
	1s
$end
$scope module jk_ff_tb $end
$var wire 1 ! q $end
$var reg 1 " clk $end
$var reg 1 # j $end
$var reg 1 $ k $end
$scope module uut $end
$var wire 1 " clk $end
$var wire 1 # j $end
$var wire 1 $ k $end
$var reg 1 ! q $end
$upscope $end
$upscope $end
$enddefinitions $end
$comment Show the parameter values. $end
$dumpall
$end
#0
$dumpvars
0$
0#
0"
x!
$end
#5
1"
#10
0"
#15
1"
#20
0"
1$
#25
0!
1"
#30
0"
0$
1#
#35
1!
1"
#40
0"
1$
#45
0!
1"
#50
0"
#55
1!
1"
#60
0"
0$
0#
