[day-01]_basic_gates/basic_gates_tb.vcd
$date
	Fri Apr 10 08:49:23 2026
$end
$version
	Icarus Verilog
$end
$timescale
	1ps
$end
$scope module basic_gates_tb $end
$var wire 1 ! U $end
$var wire 1 " T $end
$var wire 1 # S $end
$var wire 1 $ R $end
$var wire 1 % Q $end
$var wire 1 & P $end
$var reg 1 ' A $end
$var reg 1 ( B $end
$var reg 1 ) C $end
$scope module uut $end
$var wire 1 ' A $end
$var wire 1 ( B $end
$var wire 1 ) C $end
$var wire 1 & P $end
$var wire 1 % Q $end
$var wire 1 $ R $end
$var wire 1 # S $end
$var wire 1 " T $end
$var wire 1 ! U $end
$upscope $end
$upscope $end
$enddefinitions $end
$comment Show the parameter values. $end
$dumpall
$end
#0
$dumpvars
0)
0(
0'
0&
1%
0$
1#
0"
1!
$end
#100000
1$
0#
1"
0!
1)
#200000
0)
1(
#300000
0"
1!
1)
#400000
1"
0!
0)
0(
1'
#500000
0"
1!
1)
#600000
0)
1(
#700000
1&
0%
1"
0!
1)
