[day-16]_four_bit_sync_up_counter/up_counter_tb.vcd
$date
	Mon Apr 13 23:29:24 2026
$end
$version
	Icarus Verilog
$end
$timescale
	1s
$end
$scope module up_counter_tb $end
$var wire 4 ! count [3:0] $end
$var reg 1 " clk $end
$var reg 1 # rst $end
$scope module u1 $end
$var wire 1 " clk $end
$var wire 1 # rst $end
$var reg 4 $ count [3:0] $end
$upscope $end
$upscope $end
$enddefinitions $end
$comment Show the parameter values. $end
$dumpall
$end
#0
$dumpvars
b0 $
1#
1"
b0 !
$end
#5
0"
#10
1"
#15
0"
#20
1"
#25
0"
#30
1"
#35
0"
#40
1"
#45
0"
#50
1"
#55
0"
#60
1"
#65
0"
#70
1"
#75
0"
#80
1"
#85
0"
#90
1"
#95
0"
#100
b1 !
b1 $
1"
0#
#105
0"
#110
b10 !
b10 $
1"
#115
0"
#120
b11 !
b11 $
1"
#125
0"
#130
b100 !
b100 $
1"
#135
0"
#140
b101 !
b101 $
1"
#145
0"
#150
b110 !
b110 $
1"
#155
0"
#160
b111 !
b111 $
1"
#165
0"
#170
b1000 !
b1000 $
1"
#175
0"
#180
b1001 !
b1001 $
1"
#185
0"
#190
b1010 !
b1010 $
1"
#195
0"
#200
b1011 !
b1011 $
1"
#205
0"
#210
b1100 !
b1100 $
1"
#215
0"
#220
b1101 !
b1101 $
1"
#225
0"
#230
b1110 !
b1110 $
1"
#235
0"
#240
b1111 !
b1111 $
1"
#245
0"
#250
b0 !
b0 $
1"
#255
0"
#260
b1 !
b1 $
1"
#265
0"
#270
b10 !
b10 $
1"
#275
0"
#280
b11 !
b11 $
1"
#285
0"
#290
b100 !
b100 $
1"
#295
0"
#300
b0 !
b0 $
1"
1#
#305
0"
#310
1"
#315
0"
#320
1"
#325
0"
#330
1"
#335
0"
#340
1"
#345
0"
#350
1"
#355
0"
#360
1"
#365
0"
#370
1"
#375
0"
#380
1"
#385
0"
#390
1"
#395
0"
#400
b1 !
b1 $
1"
0#
#405
0"
#410
b10 !
b10 $
1"
#415
0"
#420
b11 !
b11 $
1"
#425
0"
#430
b100 !
b100 $
1"
#435
0"
#440
b101 !
b101 $
1"
#445
0"
#450
b110 !
b110 $
1"
#455
0"
#460
b111 !
b111 $
1"
#465
0"
#470
b1000 !
b1000 $
1"
#475
0"
#480
b1001 !
b1001 $
1"
#485
0"
#490
b1010 !
b1010 $
1"
#495
0"
#500
b1011 !
b1011 $
1"
#505
0"
#510
b1100 !
b1100 $
1"
#515
0"
#520
b1101 !
b1101 $
1"
#525
0"
#530
b1110 !
b1110 $
1"
#535
0"
#540
b1111 !
b1111 $
1"
#545
0"
#550
b0 !
b0 $
1"
#555
0"
#560
b1 !
b1 $
1"
#565
0"
#570
b10 !
b10 $
1"
#575
0"
#580
b11 !
b11 $
1"
#585
0"
#590
b100 !
b100 $
1"
#595
0"
#600
b101 !
b101 $
1"
